R Notebook
…
markers <- read.table('output/markergenes/wolfrum/markers_wolfrum.compute.seurat_obj.rds_seurat_clusters_negbinom', sep='\t', header=T)

Top 10 positive markers per cluster

pos_markers_top10 <- markers %>% 
  group_by(cluster) %>% 
  top_n(n=10, wt=avg_logFC)
  
neg_markers_top20 <- markers %>% 
  group_by(cluster) %>% 
  top_n(n=6, wt=desc(avg_logFC))

pos_markers_top10

# A tibble: 270 x 7
# Groups:   cluster [27]
   cluster p_val avg_logFC pct.1 pct.2 p_val_adj gene   
     <int> <dbl>     <dbl> <dbl> <dbl>     <dbl> <fct>  
 1       0     0    -0.250 0.04  0.213         0 NHLRC2 
 2       0     0    -0.250 0.046 0.242         0 KANSL3 
 3       0     0    -0.250 0.041 0.238         0 PSMA5  
 4       0     0    -0.250 0.077 0.248         0 ZNF106 
 5       0     0    -0.250 0.045 0.201         0 C9orf85
 6       0     0    -0.250 0.042 0.247         0 ILKAP  
 7       0     0    -0.250 0.037 0.24          0 PHF11  
 8       0     0    -0.250 0.05  0.242         0 SEL1L  
 9       0     0    -0.251 0.044 0.255         0 KLC1   
10       0     0    -0.251 0.034 0.192         0 DZIP3  
# … with 260 more rows
…
